INGRESOS MULTIPLES HIPOTECARIOS RECIBIDOS POR CAJA

Fecha de emision 25022020 

Motivo;RutCliente;Numerooperación;PagadoPor;CuotaInicial;CuotaFinal;FechaMovimiento;Sucursal;Caja;Ingreso
08-Pago dividendo        ;17.133.045-9   ;601500008524             ;0 ;52;52;25022020;150;9516;410997
08-Pago dividendo        ;7.871.139-6    ;601500008753             ;0 ;47;47;25022020;150;9516;541157
08-Pago dividendo        ;9.760.969-1    ;603700000881             ;0 ;156;156;25022020;371;8582;388844
08-Pago dividendo        ;9.760.969-1    ;603700000881             ;0 ;156;156;25022020;371;8582;54
19-Pago G.Operacionales  ;6.980.465-9    ;990185                   ;C ;0;0;25022020;451;10116;170035
08-Pago dividendo        ;11.180.806-6   ;604500016461             ;0 ;69;76;25022020;481;9540;2716348
08-Pago dividendo        ;14.344.203-9   ;600040017671             ;0 ;81;82;25022020;518;10084;565041
08-Pago dividendo        ;14.433.163-K   ;600040016497             ;0 ;82;82;25022020;533;8741;435684
08-Pago dividendo        ;9.970.327-K    ;605150001748             ;0 ;89;89;25022020;541;9150;374126
19-Pago G.Operacionales  ;6.980.465-9    ;990185                   ;C ;0;0;25022020;451;10116;170035
08-Pago dividendo        ;11.881.954-3   ;600030071120             ;0 ;129;129;25022020;599;11132;299618
19-Pago G.Operacionales  ;6.980.465-9    ;990185                   ;C ;0;0;25022020;451;10116;170035
19-Pago G.Operacionales  ;6.980.465-9    ;990185                   ;C ;0;0;25022020;451;10116;170035
08-Pago dividendo        ;9.081.545-8    ;608070014961             ;0 ;77;77;25022020;720;9051;269983
08-Pago dividendo        ;12.846.619-3   ;608070014457             ;0 ;83;83;25022020;803;8804;227178
26-Prepago Hipotecario   ;7.337.314-K    ;0                        ;0 ;0;0;25022020;804;8534;8000000
26-Prepago Hipotecario   ;7.337.314-K    ;0                        ;0 ;0;0;25022020;804;8534;131864
08-Pago dividendo        ;9.392.793-1    ;609020003477             ;0 ;69;69;25022020;901;525;265433
;;;;;;;TOTAL RECIBIDO;;14796362
